<svg xmlns="http://www.w3.org/2000/svg" width="297" height="398" style=""><rect id="backgroundrect" width="100%" height="100%" x="0" y="0" fill="none" stroke="none"/>
    
<g class="currentLayer" style=""><title>Layer 1</title><g id="group" class="">
        <path id="path" d="M219.04999847412108,196.5632051086426 C219.5999984741211,210.90320510864257 220.7199984741211,223.52320510864257 222.25999847412112,232.76320510864258 C222.7059984741211,235.60020510864257 223.3069984741211,238.4112051086426 224.05999847412107,241.1832051086426 L233.81999847412112,268.8632051086426 L213.98999847412108,281.3632051086426 C215.09099847412108,286.3402051086426 216.56499847412107,291.2272051086426 218.3999984741211,295.98320510864255 C219.44199847412108,298.73020510864256 220.7799984741211,301.35520510864256 222.38999847412111,303.8132051086426 C223.2899984741211,305.1132051086426 224.00999847412112,305.8932051086426 224.49999847412107,306.2532051086426 C229.24999847412107,309.71320510864257 240.0199984741211,312.4932051086426 256.5499984741211,313.2432051086426 L279.5199984741211,314.28320510864256 L282.4799984741211,391.1832051086426 L261.4199984741211,395.2632051086426 C240.18999847412107,399.3632051086426 217.4699984741211,398.78320510864256 193.3999984741211,393.66320510864256 C153.92999847412108,385.2632051086426 128.51999847412108,360.02320510864257 118.1499984741211,321.3332051086426 L-0.0000015258789005656581,376.1132051086426 L-0.0000015258789005656581,152.7532051086426 L0.10999847412109887,151.55320510864257 C3.649998474121091,114.89320510864258 23.069998474121093,80.01320510864258 57.159998474121096,47.003205108642575 C104.45999847412111,4.143205108642576 171.68999847412107,-8.856794891357424 257.49999847412107,5.76320510864258 L297.3499984741211,16.703205108642578 L272.3199984741211,46.633205108642585 C244.24999847412107,79.55320510864257 227.36999847412108,105.31320510864259 221.7299984741211,122.50320510864259 C219.0999984741211,139.21320510864257 217.9799984741211,169.15320510864257 219.0399984741211,196.5632051086426 z" fill="#000000"/>
        <path id="base" d="M244.9099984741211,40.43320510864258 C218.98999847412108,71.99320510864257 203.13999847412111,97.42320510864258 197.3499984741211,116.70320510864258 C190.94999847412112,153.95320510864258 192.43999847412107,247.91320510864256 205.00999847412112,257.9532051086426 L196.2299984741211,262.1132051086426 L114.1299984741211,296.6832051086426 L114.1299984741211,139.42320510864258 C114.1899984741211,138.61720510864257 114.3619984741211,137.82220510864258 114.63999847412109,137.0632051086426 C115.2329984741211,135.36120510864257 115.96199847412109,133.70920510864258 116.81999847412109,132.12320510864257 C118.9699984741211,128.02320510864257 122.23999847412108,123.11320510864257 126.4699984741211,117.65320510864257 C135.73999847412108,105.68320510864257 148.9699984741211,91.96320510864257 164.7299984741211,78.25320510864259 C184.11999847412108,61.37320510864258 210.8299984741211,48.73320510864258 244.9099984741211,40.43320510864258 zM234.43999847412107,27.633205108642585 C201.38999847412111,36.48320510864258 174.8499984741211,49.55320510864257 154.87999847412107,66.93320510864258 C121.54999847412108,95.94320510864259 99.1199984741211,124.88320510864258 99.1199984741211,139.42320510864258 L99.1199984741211,303.97320510864256 L24.9999984741211,336.97320510864256 L24.9999984741211,153.9432051086426 C27.899998474121105,123.79320510864258 44.41999847412109,94.13320510864258 74.54999847412108,64.95320510864258 C111.54999847412108,31.443205108642573 164.8499984741211,18.993205108642584 234.44999847412112,27.613205108642575 zM198.86999847412108,313.2032051086426 C200.67999847412108,316.6262051086426 202.91799847412108,319.80520510864255 205.5299984741211,322.66320510864256 L175.92999847412108,361.2432051086426 C166.75899847412109,356.4982051086426 158.87299847412112,349.6012051086426 152.94999847412112,341.1432051086426 L198.86999847412108,313.2032051086426 zM192.99999847412107,299.2032051086426 L145.7099984741211,328.0032051086426 C143.4749984741211,322.67520510864256 141.7379984741211,317.15120510864256 140.51999847412108,311.5032051086426 L190.49999847412107,290.5532051086426 C191.23599847412112,293.4672051086426 192.06999847412112,296.35520510864256 192.99999847412107,299.21320510864257 zM217.9799984741211,331.0832051086426 C219.8179984741211,331.88420510864256 221.6929984741211,332.5952051086426 223.5999984741211,333.21320510864257 L223.5999984741211,372.6932051086426 C215.5299984741211,372.1932051086426 207.19999847412112,371.03320510864256 198.5999984741211,369.2032051086426 C195.74999847412107,368.60320510864256 192.99999847412107,367.8932051086426 190.3399984741211,367.09320510864256 L217.9799984741211,331.0832051086426 zM238.5999984741211,336.6432051086426 C243.7199984741211,337.41320510864256 249.3299984741211,337.9432051086426 255.42999847412108,338.21320510864257 L256.6799984741211,370.71320510864257 C250.7129984741211,371.86020510864256 244.6699984741211,372.56920510864256 238.5999984741211,372.8332051086426 L238.5999984741211,336.6332051086426 zM160.4699984741211,170.45320510864258 C157.3829984741211,170.53420510864257 154.3499984741211,169.61920510864257 151.82399847412108,167.84420510864257 C149.2969984741211,166.0692051086426 147.4079984741211,163.52620510864259 146.4379984741211,160.59420510864257 C145.4689984741211,157.66220510864258 145.4689984741211,154.49420510864257 146.4379984741211,151.5622051086426 C147.4079984741211,148.63020510864257 149.2969984741211,146.08720510864256 151.82399847412108,144.3122051086426 C154.3499984741211,142.53720510864258 157.3829984741211,141.6222051086426 160.4699984741211,141.70320510864258 C164.21599847412108,141.80220510864257 167.7779984741211,143.36120510864257 170.39199847412107,146.0452051086426 C173.0059984741211,148.7292051086426 174.47099847412107,152.33120510864256 174.47099847412107,156.07820510864258 C174.47099847412107,159.8252051086426 173.0059984741211,163.42720510864257 170.39199847412107,166.11120510864257 C167.7779984741211,168.7952051086426 164.21599847412108,170.3542051086426 160.4699984741211,170.45320510864258 zM160.61999847412108,181.23320510864258 C165.83399847412107,181.33920510864257 170.94699847412107,179.76820510864258 175.2029984741211,176.75520510864257 C179.45899847412107,173.7412051086426 182.6379984741211,169.43920510864257 184.2699984741211,164.48620510864257 C185.90099847412108,159.5322051086426 185.90099847412108,154.18420510864257 184.2699984741211,149.23020510864256 C182.6379984741211,144.2772051086426 179.45899847412107,139.97520510864257 175.2029984741211,136.9612051086426 C170.94699847412107,133.94820510864258 165.83399847412107,132.37720510864258 160.61999847412108,132.48320510864258 C154.24299847412107,132.61220510864257 148.1649984741211,135.23920510864258 143.7009984741211,139.7942051086426 C139.2369984741211,144.35020510864257 136.73399847412108,150.48020510864256 136.73399847412108,156.85820510864258 C136.73399847412108,163.23620510864257 139.2369984741211,169.3662051086426 143.7009984741211,173.92220510864257 C148.1649984741211,178.47720510864258 154.24299847412107,181.1042051086426 160.61999847412108,181.23320510864258 zM160.4799984741211,241.70320510864258 C157.3929984741211,241.7842051086426 154.35999847412108,240.86920510864257 151.83399847412107,239.0942051086426 C149.3069984741211,237.31920510864256 147.4179984741211,234.77620510864256 146.4479984741211,231.8442051086426 C145.47899847412108,228.91220510864258 145.47899847412108,225.74420510864257 146.4479984741211,222.81220510864256 C147.4179984741211,219.8802051086426 149.3069984741211,217.3372051086426 151.83399847412107,215.56220510864256 C154.35999847412108,213.78720510864258 157.3929984741211,212.87220510864256 160.4799984741211,212.95320510864258 C164.22599847412107,213.05220510864257 167.78799847412108,214.6112051086426 170.40199847412111,217.29520510864256 C173.0159984741211,219.9792051086426 174.48099847412107,223.58120510864256 174.48099847412107,227.32820510864258 C174.48099847412107,231.0752051086426 173.0159984741211,234.67720510864257 170.40199847412111,237.3612051086426 C167.78799847412108,240.04520510864256 164.22599847412107,241.6042051086426 160.4799984741211,241.70320510864258 zM160.61999847412108,252.48320510864255 C165.83399847412107,252.5892051086426 170.94699847412107,251.01820510864258 175.2029984741211,248.0052051086426 C179.45899847412107,244.9912051086426 182.6379984741211,240.68920510864257 184.2699984741211,235.7362051086426 C185.90099847412108,230.7822051086426 185.90099847412108,225.43420510864257 184.2699984741211,220.48020510864256 C182.6379984741211,215.5272051086426 179.45899847412107,211.22520510864257 175.2029984741211,208.21120510864256 C170.94699847412107,205.19820510864258 165.83399847412107,203.62720510864256 160.61999847412108,203.73320510864255 C154.24299847412107,203.86220510864257 148.1649984741211,206.48920510864258 143.7009984741211,211.0442051086426 C139.2369984741211,215.60020510864257 136.73399847412108,221.73020510864256 136.73399847412108,228.10820510864255 C136.73399847412108,234.4862051086426 139.2369984741211,240.6162051086426 143.7009984741211,245.17220510864257 C148.1649984741211,249.72720510864258 154.24299847412107,252.3542051086426 160.61999847412108,252.48320510864255 z" fill="#ffffff" fill-rule="evenodd"/>
        <path id="path_1" d="M244.9099984741211,40.43320510864258 C218.98999847412108,71.99320510864257 203.13999847412111,97.42320510864258 197.3499984741211,116.70320510864258 C190.94999847412112,153.95320510864258 192.43999847412107,247.91320510864256 205.00999847412112,257.9532051086426 L196.2299984741211,262.1132051086426 L114.1299984741211,296.6832051086426 L114.1299984741211,139.42320510864258 C114.1899984741211,138.61720510864257 114.3619984741211,137.82220510864258 114.63999847412109,137.0632051086426 C115.2329984741211,135.36120510864257 115.96199847412109,133.70920510864258 116.81999847412109,132.12320510864257 C118.9699984741211,128.02320510864257 122.23999847412108,123.11320510864257 126.4699984741211,117.65320510864257 C135.73999847412108,105.68320510864257 148.9699984741211,91.96320510864257 164.7299984741211,78.25320510864259 C184.11999847412108,61.37320510864258 210.8299984741211,48.73320510864258 244.9099984741211,40.43320510864258 zM160.4699984741211,177.95320510864258 C165.09799847412108,177.96820510864256 169.6139984741211,176.51320510864258 173.36299847412107,173.8002051086426 C177.11299847412107,171.0862051086426 179.90599847412108,167.25220510864258 181.33899847412107,162.85120510864257 C182.77199847412112,158.4502051086426 182.77199847412112,153.70620510864256 181.33899847412107,149.30520510864258 C179.90599847412108,144.90420510864257 177.11299847412107,141.07020510864257 173.36299847412107,138.35620510864257 C169.6139984741211,135.64320510864258 165.09799847412108,134.1882051086426 160.4699984741211,134.20320510864258 C154.68299847412112,134.22120510864258 149.1329984741211,136.53620510864258 145.0469984741211,140.6342051086426 C140.96099847412108,144.73320510864258 138.6639984741211,150.29120510864257 138.6639984741211,156.07820510864258 C138.6639984741211,161.86520510864258 140.96099847412108,167.42320510864258 145.0469984741211,171.52220510864257 C149.1329984741211,175.62020510864258 154.68299847412112,177.93520510864258 160.4699984741211,177.95320510864258 zM160.4699984741211,249.20320510864258 C165.09799847412108,249.21820510864256 169.6139984741211,247.76320510864258 173.36299847412107,245.05020510864256 C177.11299847412107,242.33620510864256 179.90599847412108,238.50220510864256 181.33899847412107,234.1012051086426 C182.77199847412112,229.7002051086426 182.77199847412112,224.95620510864256 181.33899847412107,220.55520510864255 C179.90599847412108,216.1542051086426 177.11299847412107,212.3202051086426 173.36299847412107,209.6062051086426 C169.6139984741211,206.89320510864258 165.09799847412108,205.4382051086426 160.4699984741211,205.45320510864258 C154.68299847412112,205.47120510864255 149.1329984741211,207.7862051086426 145.0469984741211,211.88420510864256 C140.96099847412108,215.98320510864255 138.6639984741211,221.5412051086426 138.6639984741211,227.32820510864258 C138.6639984741211,233.11520510864256 140.96099847412108,238.6732051086426 145.0469984741211,242.7722051086426 C149.1329984741211,246.87020510864255 154.68299847412112,249.1852051086426 160.4699984741211,249.20320510864258 z" fill="#000000" fill-opacity="0.5" fill-rule="evenodd"/>
    </g></g></svg>