<svg xmlns="http://www.w3.org/2000/svg" width="399" height="392" style=""><rect id="backgroundrect" width="100%" height="100%" x="0" y="0" fill="none" stroke="none"/>
    
<g class="currentLayer" style=""><title>Layer 1</title><g id="group" class="">
        <path id="path" d="M305.7900001525879,37.69000152587891 C327.2100001525879,38.63000152587891 342.0000001525879,40.5600015258789 353.5700001525879,44.3100015258789 C367.6400001525879,48.88000152587891 377.6000001525879,56.510001525878906 383.6400001525879,68.08000152587891 C388.8400001525879,78.0300015258789 390.7600001525879,89.9000015258789 390.7600001525879,106.48000152587892 C390.7600001525879,130.4100015258789 387.1000001525879,145.0000015258789 379.5100001525879,157.5500015258789 C378.43000015258787,159.3400015258789 375.3400001525879,164.0500015258789 375.3800001525879,163.98000152587892 C373.4000001525879,167.1000015258789 372.9400001525879,168.5000015258789 372.9400001525879,172.2100015258789 C372.9400001525879,176.5000015258789 374.7200001525879,179.4000015258789 380.4100001525879,184.48000152587892 C380.0100001525879,184.1200015258789 386.18000015258787,189.48000152587892 387.9500001525879,191.1800015258789 C394.7300001525879,197.7100015258789 398.6700001525879,204.2800015258789 398.6700001525879,213.25000152587893 C398.6700001525879,219.8500015258789 395.6900001525879,225.5900015258789 390.9100001525879,229.69000152587893 C387.6500001525879,232.4800015258789 383.7700001525879,234.38000152587892 379.3900001525879,235.6700015258789 C372.7100001525879,237.64000152587892 364.5900001525879,238.2100015258789 356.4700001525879,237.4800015258789 C348.5300001525879,236.7800015258789 340.9000001525879,234.8500015258789 334.5900001525879,231.7100015258789 L334.5900001525879,259.5400015258789 L366.5900001525879,259.5400015258789 L366.5900001525879,312.2400015258789 L291.2900001525879,312.2400015258789 L291.2900001525879,391.7400015258789 L110.57000015258788,391.7400015258789 L110.57000015258788,240.95000152587892 L133.0200001525879,240.95000152587892 L133.0200001525879,155.4600015258789 L154.8100001525879,155.4600015258789 L154.8100001525879,145.76000152587892 L139.4700001525879,145.76000152587892 L139.4700001525879,131.8800015258789 C127.4850001525879,130.3630015258789 116.0550001525879,125.9220015258789 106.19000015258788,118.95000152587892 C104.4900001525879,117.77000152587891 99.50000015258789,114.11000152587891 98.63000015258788,113.51000152587892 C95.44000015258788,111.3100015258789 93.98000015258788,110.74000152587891 91.53000015258789,110.74000152587891 C89.72000015258789,110.74000152587891 88.4000001525879,110.9400015258789 87.54000015258788,111.24000152587891 C86.9200001525879,111.70000152587892 86.8000001525879,111.95000152587892 86.6800001525879,112.30000152587891 C86.22400015258788,113.8150015258789 85.98900015258789,115.3880015258789 85.98000015258788,116.9700015258789 L85.98000015258788,206.4100015258789 C85.98000015258788,218.01000152587892 78.87000015258789,226.4600015258789 68.42000015258789,231.4600015258789 C61.54000015258789,234.76000152587892 53.0200001525879,236.64000152587892 44.0200001525879,237.2100015258789 C35.65000015258789,237.75000152587893 27.220000152587886,237.1000015258789 20.390000152587888,235.2700015258789 C16.03000015258789,234.11000152587889 12.20000015258789,232.4700015258789 8.930000152587894,230.0800015258789 C3.5900001525878906,226.18000152587888 1.5258788721439487e-7,220.4000015258789 1.5258788721439487e-7,213.24000152587888 C1.5258788721439487e-7,204.87000152587893 3.8500001525878886,198.76000152587892 10.150000152587893,193.1600015258789 C12.510000152587892,191.0600015258789 20.820000152587895,184.8300015258789 20.610000152587887,184.9900015258789 C26.81000015258789,180.0900015258789 28.92000015258789,176.9100015258789 28.92000015258789,172.1900015258789 C28.901000152587898,171.7340015258789 28.81600015258789,171.28300152587892 28.67000015258789,170.8500015258789 C28.28000015258789,169.5600015258789 27.510000152587892,167.8500015258789 26.110000152587887,165.2200015258789 C25.880000152587897,164.8000015258789 22.010000152587892,157.7900015258789 20.710000152587895,155.2800015258789 C12.920000152587889,140.2500015258789 8.860000152587887,125.7200015258789 8.860000152587887,106.4700015258789 C8.860000152587887,89.51000152587892 10.210000152587895,78.58000152587891 14.410000152587884,69.04000152587889 C19.690000152587885,57.05000152587891 29.100000152587896,49.07000152587891 42.84000015258789,44.38000152587891 C54.080000152587886,40.54000152587891 68.67000015258789,38.6100015258789 90.3900001525879,37.68000152587891 C104.9900001525879,37.05000152587891 118.66000015258788,36.88000152587891 151.57000015258788,36.840001525878904 L151.57000015258788,0.0000015258789076710855 L247.67000015258787,0.0000015258789076710855 L247.67000015258787,36.840001525878904 C278.3900001525879,36.88000152587891 291.5700001525879,37.0600015258789 305.7900001525879,37.68000152587891 zM317.1600001525879,117.55000152587891 C317.0220001525879,115.99600152587891 316.6820001525879,114.46600152587891 316.1500001525879,113.0000015258789 C315.9770001525879,112.48600152587892 315.7050001525879,112.01000152587892 315.3500001525879,111.6000015258789 C315.1490001525879,111.4220015258789 314.9090001525879,111.2920015258789 314.6500001525879,111.2200015258789 C313.4600001525879,110.86600152587891 312.22100015258786,110.7070015258789 310.9800001525879,110.7500015258789 C308.9800001525879,110.7500015258789 307.9200001525879,111.17000152587892 305.2100001525879,113.1200015258789 C304.49000015258787,113.6300015258789 299.4400001525879,117.51000152587892 297.5800001525879,118.8400015258789 C287.9000001525879,125.7200015258789 277.4800001525879,130.0900015258789 263.7900001525879,131.9300015258789 L263.7900001525879,145.76000152587892 L247.68000015258787,145.76000152587892 L247.68000015258787,155.4700015258789 L267.43000015258787,155.4700015258789 L267.43000015258787,167.8400015258789 L317.1600001525879,167.8400015258789 L317.1600001525879,117.54000152587889 zM280.4200001525879,222.6000015258789 L267.4200001525879,222.6000015258789 L267.4200001525879,240.9600015258789 L280.4200001525879,240.9600015258789 L280.4200001525879,222.6000015258789 z" fill="#000000"/>
        <path id="base" d="M155.1500001525879,53.010001525878906 L248.1500001525879,53.010001525878906 L248.1500001525879,129.5900015258789 L155.1500001525879,129.5900015258789 L155.1500001525879,53.0000015258789 zM91.53000015258789,94.58000152587891 C77.44000015258788,94.58000152587891 70.20000015258789,101.9700015258789 69.81000015258789,116.74000152587891 L69.81000015258789,206.4200015258789 C69.81000015258789,224.8300015258789 16.17000015258789,224.8300015258789 16.17000015258789,213.25000152587893 C16.17000015258789,201.6600015258789 45.09000015258789,197.05000152587888 45.09000015258789,172.2100015258789 C45.09000015258789,156.5200015258789 25.03000015258789,144.8300015258789 25.03000015258789,106.48000152587892 C25.03000015258789,57.2800015258789 36.76000015258789,53.35000152587891 138.98000015258788,53.04000152587891 L138.98000015258788,115.4000015258789 C112.1800001525879,110.6000015258789 109.48000015258788,94.58000152587891 91.53000015258789,94.58000152587891 zM264.3200001525879,53.0600015258789 C356.9600001525879,53.52000152587891 374.5800001525879,58.24000152587891 374.5800001525879,106.48000152587892 C374.5800001525879,155.8500015258789 356.7600001525879,149.0800015258789 356.7600001525879,172.2100015258789 C356.7600001525879,195.3300015258789 382.5000001525879,200.2800015258789 382.5000001525879,213.25000152587893 C382.5000001525879,226.2200015258789 333.3300001525879,224.2300015258789 333.3300001525879,206.4200015258789 L333.3300001525879,116.74000152587891 C332.0000001525879,101.9700015258789 324.55000015258787,94.58000152587891 310.9800001525879,94.58000152587891 C293.6100001525879,94.58000152587891 291.8500001525879,110.71000152587891 264.3200001525879,115.45000152587892 L264.3200001525879,53.0600015258789 zM227.66000015258788,240.64000152587892 L227.66000015258788,208.11000152587889 L200.7100001525879,186.51000152587892 L173.7500001525879,208.11000152587889 L173.7500001525879,240.64000152587892 L149.19000015258788,240.64000152587892 L149.19000015258788,171.64000152587892 L251.25000015258792,171.64000152587892 L251.25000015258792,240.64000152587892 L227.66000015258788,240.64000152587892 zM173.76000015258788,257.1300015258789 L173.76000015258788,316.7000015258789 L227.66000015258788,316.7000015258789 L227.66000015258788,257.1300015258789 L275.12000015258786,257.1300015258789 L275.12000015258786,375.56000152587893 L126.75000015258789,375.56000152587893 L126.75000015258789,257.1300015258789 L173.7500001525879,257.1300015258789 zM267.5600001525879,206.43000152587888 L267.5600001525879,184.0000015258789 L318.4200001525879,184.0000015258789 L318.4200001525879,275.7000015258789 L350.4200001525879,275.7000015258789 L350.4200001525879,296.06000152587893 L296.5900001525879,296.06000152587893 L296.5900001525879,206.4100015258789 L267.5400001525879,206.4100015258789 zM170.98000015258788,155.4600015258789 L170.98000015258788,145.76000152587892 L231.50000015258792,145.76000152587892 L231.50000015258792,155.4600015258789 L170.9900001525879,155.4600015258789 zM211.48000015258788,240.9100015258789 L189.9300001525879,240.9100015258789 L189.9300001525879,215.87000152587893 L200.7100001525879,207.2300015258789 L211.49000015258787,215.87000152587893 L211.49000015258787,240.9100015258789 zM211.48000015258788,257.0800015258789 L211.48000015258788,300.5300015258789 L189.9300001525879,300.5300015258789 L189.9300001525879,257.0800015258789 L211.49000015258787,257.0800015258789 zM231.50000015258792,36.0600015258789 L167.7400001525879,36.0600015258789 L167.7400001525879,16.190001525878913 L231.50000015258792,16.190001525878913 L231.50000015258792,36.0600015258789 z" fill="#ffffff"/>
        <path id="path_1" d="M159.98000015258788,8.030001525878902 L159.98000015258788,44.7000015258789 L147.3300001525879,44.7000015258789 L147.3300001525879,137.0700015258789 L159.98000015258788,137.0700015258789 L159.98000015258788,164.7200015258789 L141.73000015258788,164.7200015258789 L141.73000015258788,249.80000152587888 L118.50000015258789,249.80000152587888 L118.50000015258789,381.6000015258789 L283.1300001525879,381.6000015258789 L283.1300001525879,249.80000152587888 L257.7100001525879,249.80000152587888 L257.7100001525879,164.7200015258789 L239.16000015258788,164.7200015258789 L239.16000015258788,137.0700015258789 L257.7100001525879,137.0700015258789 L257.7100001525879,44.7000015258789 L239.16000015258788,44.7000015258789 L239.16000015258788,8.030001525878902 z" fill="#000000" fill-opacity="0.2"/>
        <path id="path_2" d="M183.3300001525879,212.49000152587888 L183.3300001525879,306.3200015258789 L219.06000015258792,306.3200015258789 L219.06000015258792,212.49000152587888 L201.1900001525879,198.74000152587888 z" fill="#000000" fill-opacity="0.35"/>
        <path id="path_3" d="M261.5100001525879,177.8200015258789 L261.5100001525879,216.7200015258789 L288.7700001525879,216.7200015258789 L288.7700001525879,305.4800015258789 L357.0000001525879,305.4800015258789 L357.0000001525879,269.2600015258789 L327.4100001525879,269.2600015258789 L327.4100001525879,177.8200015258789 z" fill="#000000" fill-opacity="0.5"/>
    </g></g></svg>