<svg xmlns="http://www.w3.org/2000/svg" width="400" height="396" style=""><rect id="backgroundrect" width="100%" height="100%" x="0" y="0" fill="none" stroke="none"/>
    
<g class="currentLayer" style=""><title>Layer 1</title><g id="group" class="">
        <path id="path" d="M194.7981689453125,289.9590403747559 L193.1681689453125,288.24904037475585 C190.5551689453125,285.50904037475584 189.0971689453125,281.86504037475584 189.0981689453125,278.07904037475583 L189.0981689453125,177.43904037475585 L170.6281689453125,158.80904037475585 C167.8941689453125,156.05204037475585 166.3581689453125,152.32204037475586 166.3581689453125,148.43904037475585 L166.3581689453125,111.55904037475585 C166.3581689453125,106.35904037475586 169.1081689453125,101.53904037475587 173.5881689453125,98.87904037475585 L238.9881689453125,60.169040374755866 C241.2621689453125,58.82304037475586 243.8561689453125,58.11104037475586 246.4981689453125,58.109040374755864 L323.9081689453125,58.109040374755864 C326.6981689453125,58.109040374755864 329.4281689453125,58.899040374755856 331.7881689453125,60.37904037475586 L393.1281689453125,99.09904037475587 C397.4081689453125,101.79904037475586 399.9981689453125,106.49904037475585 399.9981689453125,111.55904037475585 L399.9981689453125,148.43904037475585 C399.9981689453125,152.18904037475585 398.5681689453125,155.79904037475586 395.9981689453125,158.53904037475587 L378.3981689453125,177.20904037475586 L378.3981689453125,278.0890403747559 C378.3981689453125,281.43904037475585 377.2581689453125,284.67904037475586 375.1681689453125,287.28904037475587 L327.3981689453125,347.00904037475584 C326.0161689453125,348.73704037475585 324.2631689453125,350.13204037475583 322.2691689453125,351.09104037475583 C320.2751689453125,352.05004037475584 318.0911689453125,352.5480403747559 315.8781689453125,352.54904037475586 L260.7981689453125,352.54904037475586 C256.7581689453125,352.54904037475586 252.89816894531248,350.8990403747559 250.1181689453125,347.97904037475587 L204.72816894531252,300.38904037475584 C208.32816894531248,309.31904037475584 202.21816894531253,320.63904037475584 190.9781689453125,320.63904037475584 L130.1381689453125,320.63904037475584 L130.1381689453125,381.3390403747559 C130.1381689453125,389.4690403747559 123.53816894531249,396.06904037475584 115.38816894531249,396.06904037475584 L83.76816894531251,396.06904037475584 C75.6181689453125,396.06904037475584 69.0081689453125,389.4690403747559 69.0081689453125,381.32904037475583 L69.0081689453125,320.62904037475585 L14.778168945312501,320.62904037475585 C1.1681689453125017,320.62904037475585 -5.1818310546875,303.78904037475587 5.058168945312502,294.82904037475583 C40.0781689453125,264.1490403747559 67.5981689453125,169.50904037475587 84.78816894531249,13.12904037475586 C86.7181689453125,-4.4809596252441395 112.4081689453125,-4.330959625244141 114.1281689453125,13.309040374755853 C128.7181689453125,162.89904037475586 156.4981689453125,255.53904037475587 194.7981689453125,289.9690403747559 z" fill="#000000"/>
        <path id="base" d="M319.1481689453125,136.58904037475585 L302.6981689453125,154.00904037475587 L313.3481689453125,164.10904037475586 L329.2381689453125,147.28904037475587 L345.1381689453125,164.11904037475585 L355.7681689453125,154.01904037475586 L339.3281689453125,136.59904037475587 L355.7681689453125,119.18904037475585 L345.1281689453125,109.08904037475585 L329.2281689453125,125.90904037475585 L313.3481689453125,109.07904037475586 L302.6981689453125,119.17904037475586 L319.1481689453125,136.59904037475587 zM278.1281689453125,338.06904037475584 L260.4281689453125,338.06904037475584 L241.76816894531248,318.55904037475585 L241.76816894531248,75.25904037475587 L246.0681689453125,72.71904037475585 L278.1281689453125,72.71904037475585 L278.1281689453125,338.06904037475584 zM289.9281689453125,338.06904037475584 L289.9281689453125,72.71904037475585 L323.7081689453125,72.71904037475585 L385.2581689453125,111.48904037475586 L385.2581689453125,148.42904037475586 L363.5781689453125,171.39904037475586 L363.5781689453125,278.25904037475584 L315.6481689453125,338.06904037475584 L289.9281689453125,338.06904037475584 zM229.97816894531252,305.63904037475584 L203.4981689453125,277.8390403747559 L203.4981689453125,171.35904037475586 L180.8381689453125,148.47904037475587 L180.8381689453125,111.67904037475586 L229.97816894531252,82.54904037475586 L229.97816894531252,305.6490403747559 zM190.6581689453125,306.61904037475585 L14.738168945312495,306.61904037475585 C26.038168945312506,296.61904037475585 36.4181689453125,281.2190403747559 45.9181689453125,260.42904037475586 L154.8481689453125,260.42904037475586 C165.5281689453125,281.22904037475587 177.4681689453125,296.62904037475585 190.6581689453125,306.62904037475585 zM150.3581689453125,250.59904037475587 L50.128168945312495,250.59904037475587 C71.2581689453125,199.82904037475583 87.6781689453125,121.20904037475586 99.3981689453125,14.729040374755854 C109.79816894531251,121.20904037475586 126.78816894531249,199.82904037475583 150.3781689453125,250.59904037475587 zM114.9981689453125,381.31904037475584 L83.54816894531251,381.31904037475584 L83.54816894531251,315.4690403747559 L114.9981689453125,315.4690403747559 L114.9981689453125,381.31904037475584 z" fill="#ffffff" fill-rule="evenodd"/>
        <path id="path_1" d="M236.8581689453125,66.81904037475586 L236.8581689453125,324.4590403747559 L257.2581689453125,344.94904037475584 L284.0281689453125,344.94904037475584 L284.0281689453125,66.81904037475586 z" fill="#000000" fill-opacity="0.2" fill-rule="evenodd"/>
    </g></g></svg>