<svg xmlns="http://www.w3.org/2000/svg" width="399" height="385" style=""><rect id="backgroundrect" width="100%" height="100%" x="0" y="0" fill="none" stroke="none"/>
    
<g class="currentLayer" style=""><title>Layer 1</title><g id="group" class="">
        <path id="path" d="M190.36387161254882,105.28088806152343 L181.48387161254882,119.87088806152343 C180.22587161254881,121.93388806152345 178.45887161254882,123.63788806152343 176.35187161254882,124.81988806152344 C174.24587161254883,126.00188806152343 171.86987161254882,126.62188806152344 169.45387161254882,126.62088806152343 L147.26387161254883,126.62088806152343 C102.96387161254881,127.74088806152344 72.51387161254883,127.05088806152344 55.29387161254883,124.45088806152344 C54.69387161254883,124.35088806152345 54.093871612548824,124.22088806152342 53.49387161254883,124.05088806152344 C37.473871612548834,119.43088806152343 31.63387161254883,104.89088806152344 38.733871612548825,91.65088806152343 C42.33387161254883,84.92088806152344 48.953871612548824,79.18088806152343 56.233871612548825,76.39088806152344 C54.28187161254883,75.24988806152345 52.385871612548826,74.01588806152344 50.55387161254883,72.69088806152342 C42.863871612548834,67.13088806152345 38.263871612548826,60.37088806152343 38.93387161254883,51.840888061523444 C39.593871612548824,43.44088806152344 44.94387161254883,37.79088806152343 52.54387161254883,34.020888061523436 C58.29387161254883,31.160888061523437 64.40387161254883,30.58088806152344 71.61387161254882,31.690888061523438 C72.37987161254884,31.809888061523438 73.14287161254882,31.942888061523433 73.90387161254884,32.090888061523444 C71.00387161254883,27.450888061523443 69.48387161254882,22.62088806152343 70.25387161254883,17.190888061523438 C71.25387161254883,10.00088806152344 75.97387161254883,4.760888061523431 82.60387161254883,1.8008880615234375 C89.35387161254883,-1.2091119384765605 96.03387161254884,-0.17911193847655937 103.23387161254882,2.920888061523442 C107.44187161254882,4.7738880615234365 111.43087161254883,7.091888061523434 115.12387161254884,9.830888061523439 C122.94387161254883,15.630888061523436 135.38387161254883,26.76088806152343 152.77387161254882,43.47088806152344 L169.45387161254882,43.47088806152344 C173.15387161254884,43.47088806152344 176.69387161254883,44.93088806152343 179.33387161254882,47.520888061523436 L185.58387161254882,53.67088806152344 C220.43387161254884,47.18088806152343 259.5338716125488,47.29088806152343 302.8538716125488,53.91088806152344 C305.1008716125488,54.24788806152344 307.2328716125488,55.12588806152344 309.06387161254884,56.47088806152344 L327.98387161254885,29.740888061523435 C330.80387161254885,25.75388806152344 335.0698716125488,23.020888061523436 339.87087161254885,22.124888061523436 C344.6708716125488,21.228888061523435 349.63587161254884,22.23988806152343 353.7038716125488,24.940888061523438 L390.2138716125488,49.210888061523434 C392.96087161254883,51.03488806152343 395.17887161254885,53.55088806152344 396.64487161254885,56.50388806152344 C398.1108716125488,59.45688806152344 398.7738716125488,62.74488806152344 398.5668716125488,66.03588806152345 C398.35887161254885,69.32588806152344 397.2888716125488,72.50488806152345 395.4638716125488,75.25088806152343 L344.1538716125488,147.92088806152344 L353.55387161254885,154.59088806152343 C357.6148716125488,157.46988806152345 360.36887161254884,161.84988806152344 361.20587161254883,166.75688806152343 C362.04187161254885,171.66488806152344 360.89287161254884,176.70888806152342 358.0138716125488,180.77088806152344 L345.9138716125488,196.54088806152345 C343.01587161254884,200.31388806152341 338.78987161254884,202.84788806152346 334.09687161254885,203.62688806152346 C329.4038716125488,204.40688806152343 324.58587161254883,203.37488806152345 320.62387161254884,200.74088806152344 L311.2738716125488,194.53088806152346 C241.07387161254883,284.93088806152343 180.82387161254883,339.85088806152345 131.63387161254883,366.98088806152344 C76.47387161254883,397.42088806152344 35.203871612548824,388.48088806152344 2.49387161254883,344.9508880615234 C-4.3361283874511685,335.85088806152345 3.8438716125488313,322.92088806152344 15.163871612548832,323.48088806152344 C47.02387161254883,325.04088806152345 66.72387161254883,321.98088806152344 87.66387161254883,311.3808880615234 C110.37387161254884,299.8808880615234 135.85387161254883,278.5708880615234 174.60387161254883,238.73088806152344 C190.18387161254884,222.73088806152344 214.75387161254883,194.35088806152345 248.18387161254884,153.75088806152343 L235.19387161254883,144.09088806152343 C232.54987161254883,142.12288806152344 230.4688716125488,139.49188806152344 229.1638716125488,136.46488806152342 C227.85787161254882,133.43788806152344 227.37187161254883,130.11988806152343 227.75387161254883,126.84588806152342 C228.13687161254882,123.57188806152342 229.37487161254882,120.45488806152343 231.3438716125488,117.81088806152343 L243.27387161254882,102.13088806152345 C246.0938716125488,98.42388806152343 250.19387161254883,95.89588806152344 254.7718716125488,95.03988806152344 C259.34987161254884,94.18488806152342 264.08587161254883,95.06288806152344 268.05387161254885,97.50088806152343 L276.3938716125488,102.63088806152345 L283.49387161254884,92.61088806152344 C246.63387161254883,93.05088806152344 215.58387161254882,97.31088806152343 190.36387161254882,105.28088806152343 z" fill="#000000"/>
        <path id="base" d="M293.0338716125488,78.50088806152343 C248.12387161254884,78.25088806152343 210.7838716125488,83.26088806152345 181.03387161254884,93.53088806152343 L169.45387161254882,112.54088806152345 L147.08387161254882,112.54088806152345 C103.48387161254882,113.64088806152344 73.58387161254882,112.97088806152342 57.403871612548826,110.52088806152344 C41.28387161254882,105.87088806152343 54.453871612548824,89.83088806152344 64.50387161254883,88.72088806152342 C70.43387161254883,88.02088806152344 96.36387161254882,91.19088806152342 142.30387161254882,98.22088806152342 C143.72387161254883,94.63088806152345 143.72387161254883,92.62088806152343 142.30387161254882,92.18088806152343 C102.44387161254883,79.62088806152343 73.49387161254882,71.91088806152345 58.80387161254883,61.28088806152344 C50.263871612548826,55.100888061523435 51.80387161254883,50.11088806152344 58.80387161254883,46.630888061523436 C64.50387161254883,43.80088806152344 71.85387161254883,45.42088806152344 87.83387161254882,50.630888061523436 C98.11387161254882,53.980888061523444 115.03387161254884,62.39088806152344 140.23387161254882,71.48088806152344 C141.53387161254884,71.95088806152344 141.88387161254883,69.83088806152344 141.24387161254882,65.11088806152344 C109.19387161254883,45.51088806152343 90.82387161254883,32.17088806152344 86.14387161254882,25.08088806152344 C83.29387161254883,20.78088806152344 83.07387161254883,17.020888061523436 88.34387161254884,14.660888061523437 C93.16387161254883,12.510888061523431 102.26387161254883,17.840888061523444 106.74387161254882,21.150888061523432 C114.52387161254882,26.910888061523437 127.96387161254881,39.05088806152344 147.08387161254882,57.55088806152344 L169.45387161254882,57.55088806152344 L181.02387161254882,68.95088806152344 C215.96387161254881,61.350888061523435 255.86387161254885,60.980888061523444 300.7238716125488,67.84088806152343 L293.0338716125488,78.50088806152343 zM14.473871612548834,337.55088806152344 C76.79387161254883,340.61088806152344 107.55387161254882,327.87088806152343 184.70387161254882,248.55088806152344 C202.05387161254885,230.72088806152345 229.9738716125488,198.29088806152345 268.44387161254883,151.27088806152344 L243.6038716125488,132.79088806152345 C242.93887161254884,132.29488806152344 242.41787161254882,131.63088806152345 242.0918716125488,130.86788806152344 C241.7668716125488,130.10488806152344 241.64987161254885,129.26888806152343 241.75187161254883,128.44588806152345 C241.8538716125488,127.62288806152344 242.17187161254884,126.84088806152343 242.67387161254885,126.18088806152343 L254.48387161254885,110.66088806152345 C255.18887161254884,109.73388806152343 256.21487161254885,109.10088806152345 257.3608716125488,108.88588806152345 C258.50587161254884,108.67188806152345 259.69087161254885,108.89088806152344 260.68387161254884,109.50088806152343 L280.2638716125488,121.55088806152344 L339.48387161254885,37.880888061523436 C340.1898716125488,36.88488806152344 341.25587161254884,36.20288806152344 342.45587161254883,35.978888061523435 C343.6558716125488,35.75488806152343 344.8968716125488,36.00688806152344 345.9138716125488,36.68088806152343 L382.4138716125488,60.94088806152344 C383.10987161254883,61.40788806152344 383.66887161254886,62.05188806152344 384.03287161254883,62.80688806152344 C384.39787161254884,63.56188806152343 384.5548716125488,64.39988806152343 384.4878716125488,65.23488806152343 C384.42187161254884,66.07088806152345 384.13387161254883,66.87388806152345 383.6538716125488,67.56088806152343 L324.5338716125488,151.27088806152344 L345.4138716125488,166.07088806152345 C346.0988716125488,166.56388806152344 346.6388716125488,167.23188806152345 346.9788716125488,168.00488806152345 C347.31787161254886,168.77688806152344 347.4448716125488,169.62688806152343 347.3458716125488,170.46488806152342 C347.24587161254885,171.30288806152345 346.9248716125488,172.09888806152344 346.4138716125488,172.77088806152344 L334.74387161254884,187.97088806152342 C334.0168716125488,188.91088806152345 332.96087161254883,189.54088806152345 331.7888716125488,189.73388806152343 C330.6158716125488,189.92688806152344 329.4128716125488,189.66888806152343 328.42387161254885,189.01088806152345 L308.12387161254884,175.53088806152343 C162.88387161254883,365.36088806152344 66.32387161254883,409.77088806152346 14.483871612548825,337.55088806152344 z" fill="#ffffff"/>
        <path id="path_1" d="M172.22387161254883,118.20088806152344 L49.38387161254883,118.20088806152344 L42.42387161254882,104.08088806152344 L60.953871612548824,76.91088806152345 L45.71387161254883,53.08088806152344 L56.013871612548826,38.340888061523444 L81.14387161254882,35.72088806152344 L81.14387161254882,10.740888061523435 L107.32387161254883,10.740888061523435 L147.66387161254883,48.70088806152344 L186.60387161254883,58.57088806152343 L313.8438716125488,58.57088806152343 L340.73387161254885,28.08088806152344 L393.0138716125488,61.850888061523435 L334.6038716125488,148.10088806152345 L279.42387161254885,112.10088806152345 L295.25387161254883,86.12088806152343 L191.30387161254882,96.13088806152345 z" fill="#000000" fill-opacity="0.5"/>
        <path id="path_2" d="M137.29387161254883,44.53088806152344 L147.29387161254883,44.53088806152344 L147.29387161254883,117.45088806152344 L137.29387161254883,117.45088806152344 zM179.53387161254884,60.03088806152344 L189.53387161254884,60.03088806152344 L189.53387161254884,101.95088806152344 L179.53387161254884,101.95088806152344 zM248.12387161254884,154.64088806152344 L256.19387161254883,141.99088806152344 L318.13387161254883,181.52088806152344 L310.06387161254884,194.16088806152345 zM273.9138716125488,118.33088806152344 L282.17387161254885,105.81088806152343 L344.4538716125488,146.94088806152342 L336.19387161254883,159.46088806152343 z" fill="#000000"/>
        <path id="path_3" d="M282.1638716125488,171.61088806152344 C166.02387161254882,326.77088806152346 75.84387161254884,381.41088806152345 11.623871612548825,335.54088806152345 C96.63387161254883,335.54088806152345 152.92387161254882,277.96088806152346 188.44387161254883,234.56088806152343 C210.7958716125488,207.19188806152346 233.64287161254884,180.23088806152344 256.9738716125488,153.69088806152342 L282.1638716125488,171.61088806152344 z" fill="#000000" fill-opacity="0.3"/>
        <path id="path_4" d="M287.3938716125488,90.33088806152344 L297.8438716125488,73.27088806152344 L365.7138716125488,114.85088806152345 L355.2638716125488,131.90088806152343 zM344.3538716125488,62.230888061523444 L361.55387161254885,36.45088806152344 L377.18387161254884,46.87088806152343 L360.38387161254883,72.05088806152344 L384.5838716125488,86.88088806152345 L374.7838716125488,102.89088806152344 L307.9538716125488,61.960888061523434 L317.7638716125488,45.94088806152344 L344.36387161254885,62.240888061523435 z" fill="#000000" fill-opacity="0.35"/>
    </g></g></svg>