<svg xmlns="http://www.w3.org/2000/svg" width="398" height="375" style=""><rect id="backgroundrect" width="100%" height="100%" x="0" y="0" fill="none" stroke="none"/>
    
<g class="currentLayer" style=""><title>Layer 1</title><g id="group" class="">
        <path id="base" d="M72.82000030517577,-0.000003662109378410605 L325.0000003051758,-0.000003662109378410605 C329.57000030517577,-0.000003662109378410605 333.9300003051758,1.9199963378906233 337.0000003051758,5.299996337890619 L394.1500003051758,68.22999633789061 C396.8620003051758,71.21199633789064 398.3670003051758,75.09999633789062 398.3700003051758,79.12999633789062 L398.3700003051758,124.11999633789063 C398.3700003051758,127.46999633789062 397.33000030517576,130.73999633789063 395.39000030517576,133.4799963378906 L302.2200003051758,265.3599963378906 C300.7230003051758,267.47899633789064 298.7390003051758,269.2079963378906 296.4350003051758,270.40199633789064 C294.1310003051758,271.5949963378906 291.57500030517576,272.21899633789064 288.9800003051758,272.2199963378906 L109.38000030517577,272.2199963378906 C104.37000030517578,272.2199963378906 99.64000030517579,269.9099963378906 96.57000030517577,265.94999633789064 L3.40000030517578,146.04999633789063 C1.1960003051757795,143.20599633789064 -0.0009996948242161352,139.70799633789062 3.051757815342171e-7,136.10999633789064 L3.051757815342171e-7,79.12999633789062 C3.051757815342171e-7,75.12999633789062 1.4700003051757804,71.25999633789061 4.15000030517578,68.27999633789062 L60.76000030517578,5.369996337890626 C62.28100030517578,3.6789963378906236 64.14100030517578,2.3279963378906245 66.21900030517578,1.4029963378906274 C68.29700030517579,0.47699633789062545 70.54600030517578,-0.000003662109378410605 72.82000030517577,-0.000003662109378410605 zM64.04000030517578,274.4299963378906 L123.50000030517577,358.75999633789064 L4.590000305175778,358.75999633789064 L64.04000030517578,274.4299963378906 zM199.18000030517578,290.6499963378906 L258.64000030517576,374.9799963378906 L139.72000030517577,374.9799963378906 L199.18000030517578,290.63999633789064 zM335.4000003051758,275.51999633789063 L394.8600003051758,359.8399963378906 L275.9400003051758,359.8399963378906 L335.4000003051758,275.51999633789063 z" fill="#cfcfcf"/>
        <path id="path" d="M72.82000030517577,16.20999633789063 L325.0000003051758,16.20999633789063 L382.1500003051758,79.12999633789062 L382.1500003051758,124.11999633789063 L288.9800003051758,255.99999633789065 L109.38000030517577,255.99999633789065 L16.210000305175782,136.09999633789062 L16.210000305175782,79.13999633789064 L72.81000030517578,16.21999633789062 zM273.82000030517577,108.44999633789064 L124.5400003051758,108.44999633789064 L197.3300003051758,243.02999633789062 L201.0300003051758,243.02999633789062 L273.82000030517577,108.44999633789064 zM285.9900003051758,108.44999633789064 L285.9900003051758,237.74999633789065 L369.1800003051758,119.99999633789062 L369.1800003051758,108.43999633789062 L285.9800003051758,108.43999633789062 zM29.18000030517578,108.43999633789062 L29.18000030517578,131.63999633789064 L112.37000030517578,238.69999633789064 L112.37000030517578,108.44999633789064 L29.18000030517578,108.44999633789064 zM183.68000030517578,243.01999633789063 L124.38000030517577,133.34999633789062 L124.38000030517577,243.0399963378906 L183.7000003051758,243.0399963378906 zM214.68000030517578,243.01999633789063 L273.9900003051758,243.01999633789063 L273.9900003051758,133.35999633789064 L214.68000030517578,243.02999633789062 zM212.93000030517578,29.169996337890623 L189.7600003051758,29.169996337890623 L130.4200003051758,92.21999633789062 L272.27000030517576,92.21999633789062 L212.93000030517578,29.169996337890623 zM325.20000030517576,35.70999633789063 L290.5600003051758,92.21999633789062 L369.1800003051758,92.21999633789062 L369.1800003051758,84.12999633789062 L325.20000030517576,35.70999633789063 zM314.0900003051758,29.009996337890627 L230.5900003051758,29.009996337890627 L281.1600003051758,82.72999633789061 L314.08000030517576,29.039996337890628 zM112.13000030517577,92.23999633789063 L75.55000030517579,32.56999633789063 L29.18000030517578,84.10999633789064 L29.18000030517578,92.22999633789061 L112.13000030517577,92.22999633789061 zM121.53000030517578,82.74999633789062 L172.09000030517578,29.039996337890628 L88.60000030517577,29.039996337890628 L121.53000030517578,82.74999633789062 z" fill="#000000"/>
    </g></g></svg>