{
  "f9155ac790fd02fadcdeca367b02581c04a353aa6d5aa84409a59f6804c87acd": true,
  "ad1fa93b7edb7642fc3ff9b87366822cd3cf6faffaaff6130123c8aee352726f": true,
  "daa61cb3bb3d69144c36dfde2c40780d4db8e3c03e7aab74ba3b88236f33b2c9": true,
  "93c7ec2fb131fff887557312fa1f57ecdb37758604953b54a000985b4d2770df": true,
  "d1f76300be087084ccf34ff19eaaaea59e26c73ca0967623eb2175b96b768853": true,
  "902a3f0cef38cc4336af8d8fdaf7ca3ff81a440edc98a0378c5b0cdaf5d7cad4": true,
  "b50f2665df829e4f0c5b1b7f1aabac8153c3f3e3f6dcb7d191d6528578ca6bec": true,
  "166a6210d105d613627507224e2bdaeccd68e73dd51a9bc82acef13082a5e066": true,
  "31eb994d66c6c4599f6452b4da09e754a84a74e034b9a66784609350cf7d16a3": true,
  "2af8d3bf205da20028e184d531990348779dac1835245a163dad28c5a82d7775": true,
  "bf885819350e00d162e95ef9c0aeb2fb4ab3225eccabeb9d469e3cd892bc9e13": true,
  "d64c8fb00b278af3814370e52500a900e1a11de6cbf9e8eb1203ac3ad4635c39": true,
  "6d82129b5a8c5e6e6e90ef22f9750606321cdab417bea590256d7366f3608519": true,
  "adcee393847da3687d46570ae5fc5db504dc34586bc0c6304bfc8a41512a8f8f": true,
  "d4ee77ac82be3386f1a3a8b39e538f946791c0a0fb7f60ebeb334bf50f3c8616": true,
  "4e695b474a8ac9cef8482bc0071bb332c52a550a3f88bdc0e25aa0d4a7f094e3": true,
  "6a528e437f5464e2ce919c7b51b03e181a9b0fac58df11d14c62a1ae0a0d92dc": true,
  "a5aec58c20bade230610943c9afc11cb593ddf1a5e028b5cc1fcfdf22c7b741a": true,
  "193193b3d2d480051e6ce6f4aa135d8ff12ff778a76d50a319ef8c330579bd0b": true,
  "34970a139f5d7f4320385d6f50b42b1b3c2cf9edd6af4013afebf92200a88318": true,
  "5c89fd0fffb860c283279868ccb0fdf46392aacc744b63ac7efb00902c38265b": true,
  "05966ecc64b23124795a19754da4f47f30832cdb14eb70508e463a435bed219f": true,
  "2f32c7db239ed7b79585e490aaa59947495e3f7def70670ef575e4e6e0caadef": true,
  "e7604efe9bb1a9719d6994012d6eeb208c858209c0721ae7891932165c02187d": true,
  "4a24bd794d659f72c10490ab0f8e3e8c7881eea4578269adf29cc5646238e8d4": true,
  "59b67c327cb89a194c643e93e9f15cdb0c9ac5cfca917411e6f271cd5eecab79": true,
  "1bf3915b152f784d147fa4f54d48933aa894a356150e0ce971133fe3bd2560b2": true,
  "89d9f87b9f34853e5a5162e41c0cae010f75fa55b5dec5c5d0e681633a6cc11c": true,
  "222656da2e3e339b429525e0ccfe547868a0a1141210621e13231ab1777305c7": true,
  "b6ed29e99321664c177c999995947119bef4d3703c3ac7d2ceaa758510e24cc4": true,
  "5c0e1a772ae3aba0a55fd9e30c678648e4ec02b8e20ade4bf89af03654f1a440": true,
  "7525581ecb4c9abb4f697641b7e25c2817213051b9f9243883ae3363539c3428": true,
  "3f865942ea7b2cb181b66737e47ae5c95c0dd3d5accab38e9b7ae6458e79f0fc": true,
  "89ed26367cdb9b771858e026f2eb95bfdb90e5ae943e716575327ec325f39c44": true
}