<svg
    xmlns="http://www.w3.org/2000/svg"
    viewBox="0 0 100 100"
    id="vector">
    <g id="group">
        <path
            id="path"
            d="M 101.45 44.09 L 101.45 58.72 L 0.45 58.72 L 0.45 44.09 Z"
            fill="#3c3c3c"/>
        <path
            id="path_1"
            d="M 15 10 L 87 10 C 88.06 10 89.079 10.422 89.828 11.172 C 90.578 11.921 91 12.94 91 14 L 91 86 C 91 87.06 90.578 88.079 89.828 88.828 C 89.079 89.578 88.06 90 87 90 L 15 90 C 13.94 90 12.921 89.578 12.172 88.828 C 11.422 88.079 11 87.06 11 86 L 11 14 C 11 12.94 11.422 11.921 12.172 11.172 C 12.921 10.422 13.94 10 15 10 Z"
            fill="#4c4c4b"/>
        <path
            id="path_2"
            d="M 19 18 L 19 82 L 83 82 L 83 18 Z"
            fill="#323232"/>
    </g>
</svg>
